141
1561
3196
3545
1526
3453
2396
5283
4092
1818
1994
9481
13443
7227
15547
15841
16016
1797
12323
5694
18698
18699
10498
2343
21987
24952
25263
25418
18700
9824
27138
7817
15650
5005
25564
32444
12533
31950
9710
8623
2609
5700
35978
5701
38300
22653
12534
37145
35330
40236
37961
7236
9012
17111
4401
42763
10731
35764
18165
14335
17790
42209
48040
18762
24508
49093
28723
5713
10278
20124
38507
51784
53121
1810
3624
53439
53830
3625
7843
5054
5718
10533
56684
7626
24511
17764
57863
57940
16018
27609
21828
58514
59532
49010
21064
28001
61887
8946
16992
24234
63781
41538
38816
16479
40808
6675
16063
23100
20804
66559
62940
2655
3673
67786
5725
47689
12886
29534
9652
7628
24894
54934
71254
71306
44936
54942
9508
24973
20235
18168
15278
16206
3846
13201
75139
46988
16449
38818
8702
8629
77523
78089
78090
11649
27143
56180
79697
76077
80365
38623
58929
38624
3628
29535
47796
33313
5730
82102
36918
8255
5731
83352
9464
84204
6881
84679
85052
7247
29536
11528
28256
85928
63094
17851
50943
4797
86638
50944
639
79102
5862
52934
27128
85309
10538
22493
8256
83353
89758
10845
13106
90925
68262
75380
28863
9069
88569
55319
1837
8595
5333
42282
56792
11920
15281
93150
12736
28601
47339
37269
4617
21957
41722
4216
65344
42557
92324
58164
29538
60149
4005
85205
18610
40256
96846
38819
15654
9827
27144
76612
39723
76221
99808
42558
51804
91778
101442
93533
57808
102023
3629
102320
102321
7038
103287
99538
103435
64111
51316
86642
5749
59275
104740
33468
35856
65515
25126
105524
5092
1231
74876
67548
28603
2656
107587
40896
29749
43783
98452
72436
109576
3527
15225
9563
5750
10569
99940
81696
109065
7249
109932
3124
20087
29539
33320
6444
39748
5339
6064
85612
10351
81201
5754
38825
118723
78091
119466
68610
2936
17276
7715
18702
120810
55447
120811
6573
84682
122432
114983
19315
1966
122413
15287
52412
51107
3676
30439
103524
125248
125328
79262
126231
121659
126580
56793
2422
3941
15289
72670
104935
113801
127629
122964
128823
128824
63281
54362
129493
85055
63407
15009
130576
66584
75300
10570
17515
131202
12391
49017
62499
40058
132664
8261
27950
12898
3508
37088
68424
24975
11198
134945
39749
5658
136093
80641
51297
70807
4106
25597
13447
127331
137930
23691
80550
138802
125179
98904
103438
135136
140355
42092
90256
7390
48602
98057
22102
141928
51327
142276
40549
23107
142641
57420
15657
91552
144198
131158
24314
38829
144917
104448
138719
59060
19406
82864
50384
122730
32747
72017
68613
165
5070
5464
98319
99943
15992
7088
1940
17815
147913
34438
137931
49013
137108
28317
26846
12789
148063
148064
51329
56795
6576
41733
15292
83197
56687
19788
51807
151089
41734
151229
21189
151448
29487
147965
151853
9405
99210
145979
148606
42858
153067
153172
44160
92004
104752
38068
153586
153761
120767
9829
57864
26712
63783
8222
40361
29799
110982
47246
20440
69672
17797
143675
48890
4906
23388
156503
150873
64843
61148
5031
27932
114843
416
115814
6578
17654
149932
92391
10089
144919
166
95415
135639
18499
59781
75171
4966
53353
122732
135634
126148
28801
5501
159951
10035
160420
50307
10974
35032
51715
150555
62517
160842
75366
44183
161135
76613
149861
14316
5766
160843
15295
52915
51810
38879
137109
41737
167
159016
4619
57865
65532
18358
62072
12315
17907
163959
150573
163960
112046
164180
46371
75587
69674
135912
164700
18582
18583
18584
18585
41738
95168
75834
15297
5773
165420
5777
5778
15298
42846
50565
121647
38835
146219
9763
16024
166379
28319
149370
59437
51331
166803
78114
64948
167577
15698
35362
38953
11590
25419
10073
133869
11033
62871
92745
1160
169085
35268
28605
106045
106046
162518
112935
145451
82700
40662
170410
41740
71307
15300
128834
10015
20024
171417
169067
1329
10038
85945
6889
14533
173062
15301
73694
8673
39798
59534
28013
6890
18586
1528
32449
10975
41741
85430
105373
5160
34667
112936
46347
4620
72397
73041
34442
34443
98686
23109
15302
161718
68784
29544
27150
56799
50868
67439
31289
76570
66392
59750
29545
68054
23950
150574
28700
16025
67794
102360
53435
36601
24979
15303
41742
180126
5783
117460
51925
78092
5784
50332
50334
9015
94390
68431
181145
27131
9071
67347
181797
58913
137408
94162
107588
134387
15305
182277
18363
123194
123195
84788
142277
182568
180052
93403
101446
5787
18703
143192
55958
83358
59535
37873
61329
41744
55710
145113
184638
184840
35862
59353
37820
148126
135179
73043
73044
7146
51337
364
28805
78250
38273
46773
50117
15306
19158
7127
34964
91084
38841
150103
40424
185627
178267
77224
187660
12912
34071
28865
4443
15307
67295
87054
182278
97537
8769
28607
42678
33058
32652
60785
90948
144613
114166
33293
15308
39752
61903
73150
132920
60623
67348
11653
40664
190214
69445
34851
33481
120580
102776
161137
5453
189737
186145
66949
78116
106858
15311
120069
7723
142278
88320
34515
145401
40594
150743
45307
176180
79618
85408
51340
107641
53590
18877
15313
179001
118869
12089
25467
144966
175508
72839
10156
190409
93894
104264
65840
43326
161036
48861
1529
194282
193616
31058
5060
9771
57866
39154
150446
92397
41746
20305
178268
179570
124845
187194
81401
15314
57867
195759
20101
108448
75173
13449
196149
85048
1029
56336
77059
55654
170435
141756
69147
99719
55960
197471
27155
171579
158026
39663
18367
23969
182486
122414
122415
176270
129208
162543
158152
27156
7190
95530
85432
23159
176994
61859
88180
88181
75330
162519
32450
27157
33483
164702
27158
185201
50783
98321
6897
72553
71308
95094
145200
124679
122745
4089
30926
75174
13833
23975
48865
87005
71962
202753
90710
27161
98816
95952
59067
204208
11982
99153
6540
16026
58426
62877
57813
128825
196286
155909
125180
124399
205068
180304
69573
33201
40679
159805
148506
15318
161722
193617
204882
40680
39809
50035
84712
44725
86644
146611
189152
4997
53136
81404
68434
32679
32451
86448
120636
148090
52155
37218
58916
4716
28403
29341
59621
101691
41748
103854
14502
92377
54628
124109
32947
59536
208320
205388
47867
68435
5793
34672
123662
45914
46571
30121
13450
36929
130036
23160
205389
106481
209363
115815
90926
99500
131899
102460
102361
25052
209996
5795
78605
44010
90950
5798
61648
12215
54916
140126
133779
88182
57869
173187
32949
57797
77227
93468
150439
172
27162
27682
95861
71964
28810
212911
175433
29059
25770
56803
2481
72296
71965
144200
34001
4624
110377
47425
99810
34233
115301
133240
21196
3662
24549
97382
161301
99720
147255
47426
28608
142979
34073
214669
165132
173063
63784
153375
103537
168113
13451
118729
95531
129567
150686
8530
107380
134162
163557
65536
44002
51593
74096
31161
77709
218573
90928
218714
73163
41752
38627
92547
99577
10886
184700
153214
28017
18833
166621
219425
219426
20756
15321
69033
16027
100615
127975
214926
180945
91897
93471
16070
184398
191169
143831
134886
177069
50366
94164
52081
41755
219697
14782
7643
68601
13842
146054
206125
93741
119533
215256
213530
85246
15323
54363
9832
14357
222209
222369
142503
43335
150106
126672
151455
222694
6903
99501
62880
4625
12097
67429
12098
77005
41601
41603
183333
92483
188493
16028
223667
51353
15324
52082
207208
130267
45212
48045
109801
134696
188543
15325
140018
15326
97203
15327
67430
159883
206126
40237
9667
13452
120916
224983
224984
1775
91218
225301
163073
142504
100616
44728
17005
51356
101693
192418
78031
226095
226096
140401
98459
153333
34448
226507
219431
40902
166528
41759
84713
166545
26533
41760
75590
226646
226648
226649
15209
144201
149564
101241
177138
25135
25137
25138
69428
6174
195997
123420
176133
4627
38963
47933
4628
163994
227826
1284
107974
22816
161042
28815
181440
34674
133876
228570
57871
42738
53871
54364
141418
67795
17113
182334
159884
7019
78713
109580
130831
195060
111418
175243
76754
165284
64480
1776
129463
129464
129465
174071
211219
42185
230888
64594
230917
226508
62882
91087
224048
62612
75023
150890
65849
107082
109941
205069
27168
104475
226853
32836
159212
162523
36273
231971
45721
59537
232088
66560
202639
67924
34003
162524
18370
88185
38848
151366
27169
180601
26865
129494
39341
225407
27968
187661
84686
47427
22375
152619
27170
155566
22819
53934
107070
18834
116752
128835
68130
206773
207598
34450
34676
157361
57873
234093
234178
168177
57502
54629
153177
105501
137948
16694
34678
31175
72147
32109
109581
229481
161201
205008
57875
55326
48162
167734
13453
91615
34451
147258
195790
52889
229926
92009
130578
59753
53447
221910
15161
235999
92001
164410
163603
51364
88240
175043
207788
230919
91409
95177
57876
236756
206142
8567
223833
223835
57877
236947
73634
57878
193421
17913
109942
227700
237469
24554
131980
195760
114575
83730
207600
221619
128554
86605
94836
25225
10976
38365
102755
88186
238121
67797
108618
179571
25140
25145
65180
65181
95178
190284
79654
190285
238325
83990
238326
73706
73707
189803
124875
238509
1030
189804
238558
59622
214746
208321
208322
208323
150107
150108
238764
83363
189061
238820
18708
238853
238854
208579
208580
238868
97928
123664
38851
123665
92404
92405
29551
29552
2766
29553
29554
130833
163961
102326
166178
102362
239218
163995
124020
208913
208914
15330
150575
137293
174963
195218
239379
35929
99811
99812
17114
138334
75592
1844
164434
13454
239577
18372
18373
18374
16030
16032
184578
67798
67799
67800
67801
67802
67803
239736
239737
127466
166179
223044
70587
80431
53141
121966
84687
164703
179808
51826
171419
33681
94166
240092
240093
90757
18587
147652
108619
114435
113712
66923
57949
240291
99268
113809
13455
140308
62883
81412
202464
240669
240670
76757
240671
7020
116863
65540
209998
209999
14631
129467
5062
5807
240756
192165
161235
122076
240769
169567
169556
240806
195791
240847
153216
8979
129819
240922
46350
13456
13457
13458
241038
241039
201209
146530
91412
70461
231711
231712
241060
27175
114179
114180
241129
241130
238869
78460
23294
22198
88622
95681
205319
39816
164518
35982
13459
39870
58597
171159
171160
179375
179376
136096
136097
69429
108096
92012
225871
217696
225874
225875
61892
169560
240049
186186
186187
160845
186188
186189
182487
226097
8646
226098
226099
129087
73708
241940
34554
15331
35869
181919
158413
15332
242107
242108
15333
15334
222034
207601
141930
195998
62885
23165
57879
175780
122750
34454
34455
34456
34457
18709
99721
226605
177141
226651
52083
242541
242542
41762
126809
242571
62886
39819
40239
90028
175004
197774
197775
23400
199854
166414
242780
86306
84813
37323
243037
111273
75144
243100
180604
25265
25266
75901
87557
198266
227708
243252
240821
127238
207602
176
167579
167580
81279
152924
243412
88327
227827
227828
36468
49712
153882
198714
85434
57880
56690
227895
234994
140082
25609
184770
27448
236948
141931
243908
101557
95179
95180
24984
143832
43629
224339
85409
153441
38852
206615
112397
84714
59071
59539
238510
244071
228571
225876
137587
159191
69062
244211
146764
146765
85273
105545
39820
213395
175044
63785
142505
142982
179002
39056
55716
5063
85247
145241
244722
43798
108097
244766
244767
64022
40240
199937
215060
14402
1921
28331
52687
129721
165124
165125
85667
5809
176553
199938
245021
245022
245023
131032
170073
31579
157603
245243
26035
11655
179572
173543
73709
163996
129031
57881
78879
101449
188545
147966
185757
66489
229482
235276
44200
76761
245517
214929
64132
73051
240292
229410
232344
169086
143833
36222
129529
58402
222035
197776
122058
227805
218608
198765
41608
79925
230718
118130
188797
15335
65812
241941
71256
127531
160722
160723
162901
91089
15336
229483
170411
244723
244724
32491
53142
169693
155277
136098
246327
246328
130269
38301
162417
234591
34687
246544
158308
71309
71454
246627
246628
18711
171927
187670
187671
187672
62457
162418
190215
107589
107590
203055
233347
163997
18376
192423
176189
91616
91617
86645
52165
235375
247002
103600
216557
51828
78642
75145
232882
232883
56691
191889
160724
160725
88187
114555
241131
210379
234959
38854
38855
175045
241767
191638
75146
4981
187096
130837
88328
247342
247343
64190
165485
195916
75186
184399
184400
119468
149261
64528
202658
247543
152971
169561
169562
187522
187523
242128
38278
187097
195735
247679
123666
247680
88714
163075
242153
164779
79065
126234
57950
116071
233202
94167
248025
81632
248038
7191
199855
221621
45523
5405
41764
41765
239578
40241
27178
27179
27181
241040
62887
106286
234960
53874
158549
41766
188494
188495
64482
43971
177976
15338
161724
80051
188546
34458
246012
1624
1625
246013
205009
238035
235386
235387
127265
59154
206144
206145
164196
164197
220080
38890
158163
242109
249125
11733
15339
101558
76762
88329
244042
175435
101767
87559
249315
226432
47428
91619
91620
246003
197378
197949
187900
81576
22822
180181
48587
53875
189074
90324
246438
65701
102363
206511
175436
123667
2712
148024
15341
206358
175046
18378
15548
15549
239491
249739
235376
221056
73052
240807
240808
244896
249793
145376
226591
13460
166871
228572
249740
107083
15342
65279
129530
190970
40242
249794
55967
108098
105377
57882
227829
38302
205537
189815
189816
3204
47874
248879
161725
220081
40243
180309
250185
206774
233698
240770
45178
97211
163076
250281
236001
241942
188798
41449
113981
247003
247004
32452
35870
102327
25570
34459
109582
118112
120918
55037
124878
248503
249948
226613
102364
44171
91413
161726
153595
88188
128836
34461
34556
56893
206373
42766
4998
18379
157740
81577
245024
113814
101451
101452
121967
14634
210000
186190
81679
241360
57883
101453
250953
213396
250995
7648
44376
181146
95532
183884
207604
126584
139275
246545
236981
102365
250088
91414
243305
52084
44942
53448
138570
94168
229484
208501
57884
236986
238765
160846
222414
244206
207605
232387
182279
251343
227830
57951
177075
59191
218271
217619
26312
119749
156668
15521
4629
94063
150109
144368
150110
37425
234181
150111
163431
162419
245989
208915
251999
252000
202754
252001
140360
170074
102366
238632
75593
184401
142506
142507
59541
85073
150112
150113
66288
112447
250663
123669
28518
29555
95927
30927
173425
27185
109583
15343
27186
232345
34689
38856
42301
38170
16034
179622
239738
102461
253065
239803
138872
40245
55968
240094
240095
41771
41775
28870
154113
158550
195412
20868
166985
188497
90929
202465
34694
224753
82106
253985
198186
253986
164198
144852
225637
254030
188498
87060
141419
81633
85410
173137
173138
195736
125249
103440
224876
152586
9673
249967
60437
83601
6908
31974
233203
84207
50627
50628
93764
57885
196388
48643
35984
232346
149383
149384
15344
77795
11130
241675
241267
62536
188499
62537
179947
26197
26199
224340
154805
153312
154806
234182
212958
123670
184402
141420
249980
72557
18588
206943
159984
126424
168337
195999
196000
196001
86195
202755
182629
182630
44318
104256
34462
239462
85436
112053
197261
55969
222243
242585
156512
156513
156514
223809
165273
234363
191890
191891
58085
128686
53342
219753
101454
18385
5812
29556
104741
29557
191892
59542
59543
188500
136779
128687
128688
56807
151996
44201
31464
22498
88190
27449
81419
153988
53343
237548
243280
103820
130838
179574
207590
207591
77865
59545
75317
244072
196002
184094
98082
62888
62889
62890
183341
27642
177070
91898
256663
257475
102367
170075
27188
34057
194316
169563
157528
206146
240715
128828
246004
197145
44739
9573
24954
177725
108620
124397
162033
187524
76775
86455
200646
127508
215374
223197
68439
64966
238036
185836
105504
170412
177076
86198
8633
59359
11322
184643
34699
87425
105691
72558
12052
71257
51694
250089
250090
132624
189817
189818
85137
122360
259337
259338
192352
130840
131981
243821
159742
107593
13462
122298
203056
242175
77725
206057
204573
163970
41345
41346
53344
32763
247166
177077
177078
258690
102032
44204
213160
213161
194346
88192
246644
217359
215734
69680
247344
148208
136104
250282
163971
187662
164411
207405
45524
9676
83732
67358
126235
126236
101648
217091
260587
260588
158154
12863
203057
27134
141206
153161
162929
162930
59360
59362
191893
250092
173566
4909
224341
12797
57886
238821
191074
34703
18714
132626
109584
126586
126587
160726
49097
59363
79860
232722
91730
124228
81423
175047
101560
130842
143836
31162
162873
256664
51370
125275
59627
212325
237755
208916
208917
159917
201228
12864
189879
234698
124296
236012
7650
5460
111315
94419
57563
53877
94171
188501
29558
57887
249756
262431
77035
60605
86185
206443
238822
229486
105505
139393
260467
122071
250093
147553
164199
185641
170307
189819
41347
247167
109585
175781
250664
198598
108515
221073
120581
173898
161727
185642
63821
15347
176134
15348
222247
208060
263177
193077
47429
122433
61551
208918
39824
162034
15349
206375
62724
88920
150303
113573
11890
156140
201253
239739
103441
233699
9574
57889
188799
188502
263607
263608
88193
207606
239804
161728
207607
96847
1628
234778
162282
176135
10852
101561
252002
99022
161729
159918
260393
25544
261668
105760
99252
82585
198267
191258
176191
140930
129601
189805
142642
61933
85630
41799
253067
112448
34238
18717
191445
45364
222169
111660
265050
41800
129321
173935
125337
125338
23118
92753
100514
42309
250066
78124
161127
15350
25627
60702
47430
62073
13463
158164
68440
10021
260733
39540
225877
161731
223198
98329
99724
5592
130664
130665
55973
15351
79595
62378
93475
131285
38281
205010
148609
254289
267606
254290
267607
55802
78464
141421
48606
4631
49719
162624
97783
194291
35960
217943
70287
154377
210309
168821
51843
25267
10853
65854
32966
144669
86457
129322
59364
56027
177079
136781
9528
51957
126466
55038
161314
17803
88154
173402
247345
58648
51958
209402
4632
108289
127316
198599
70227
74613
236233
123671
270833
224342
162559
59076
221439
27789
37406
118005
175437
83680
185752
151565
257628
99587
163178
8647
149174
83175
5814
185299
100255
261647
240401
5260
162035
21997
91092
223428
240109
29562
1769
60438
219397
57577
272766
189153
245675
172860
161315
190411
148790
253062
34713
102463
150116
273104
243998
256602
243999
202806
78467
222036
189806
103443
105761
245676
114355
114800
178509
142643
273261
273262
103606
208324
208325
160716
208326
151090
226592
150117
71312
70904
67067
47880
248880
248881
79702
86066
76520
189980
123672
123673
123674
224706
29563
29564
29565
29566
29567
195739
195740
195741
273531
164191
102336
83153
83176
102464
102465
102368
67603
223132
85413
94477
143172
32453
231718
273835
164182
116864
24955
169083
169084
33128
142824
159988
209154
197950
105220
16035
16036
16037
16038
244439
244440
244441
244442
218945
242543
253063
166181
117415
215504
215505
125339
27202
213362
164705
59546
240110
240111
258893
146098
238910
13464
198099
223429
205011
224317
71976
83685
251437
229488
274562
257916
219161
5816
139780
146344
204574
79703
205539
224754
125186
179005
99006
273836
214196
168231
250566
250567
265425
39459
274830
224343
195742
57890
154554
195743
93768
129495
129496
205012
97789
130342
75206
54158
242544
143837
116865
114171
142511
26885
26887
175590
101562
267950
267951
193530
192496
103607
103608
103609
103610
103611
103612
103613
1777
25423
162932
146056
165684
93939
105536
35985
35986
35987
93220
16039
175415
93940
33129
223199
102369
94064
94065
108719
40076
210743
234271
182488
182489
205540
179952
225878
225879
185829
270312
275590
275591
275592
16519
16520
204460
251449
179576
103601
103602
186908
18591
223200
78126
231719
242928
146588
192425
13099
242110
232091
2448
196003
62892
21589
197146
182031
194643
120920
193482
107906
216336
145164
39350
261669
261670
226652
226653
226654
226655
226656
193462
242545
242546
242547
184579
61555
101260
238870
150577
123675
192684
189333
81233
151486
176871
187525
195219
51147
112062
192685
185302
96564
260820
170001
224344
224985
73359
250031
232347
259685
259686
259687
168114
276652
276653
61281
38373
205013
224755
276782
276783
11505
56811
56812
77937
131203
144764
27205
4633
4634
227831
1304
242176
183390
85438
240743
210384
242781
244076
242572
162284
196150
23169
187663
61556
25424
16040
59548
59549
231217
244077
208648
277381
277382
277383
15359
51386
110985
274795
261473
261474
261475
261476
20906
197951
197952
243718
276654
276655
276656
195430
195431
195432
223673
223674
190429
163077
105692
166182
229808
168825
96097
244300
128558
89405
259394
141422
277792
251450
277839
277840
118185
270313
270314
268460
205014
146589
109586
218080
199856
277884
163001
163002
211220
201210
277938
18392
18393
55861
181115
103288
221065
103289
247346
31214
116459
15360
15361
81634
224986
219433
218229
218230
218231
52181
127622
176193
176194
129470
222133
57891
245615
4130
218232
143838
82915
144765
278552
136099
57145
101458
278559
278560
55039
247005
247006
223201
107594
145165
228348
208919
208920
39361
97216
241898
170413
170414
39826
39827
49099
15362
192426
175438
51390
242568
258982
111751
219634
246631
273434
53884
189820
132724
250095
71314
89406
53120
247076
115925
137302
177080
181798
107595
251344
201018
137591
51968
247871
277793
141478
27209
266138
266139
247276
216065
275593
157491
171336
191259
15363
216160
186530
79277
27135
88194
48607
182929
51607
149853
200245
200246
144019
224987
259489
111815
232441
38859
150578
277760
206148
31466
100281
217742
276657
171686
259949
259950
259951
144924
98333
51608
234998
158400
206777
273893
218533
190364
163078
197777
179006
179007
179008
91899
22309
159891
98334
172861
233206
17666
206094
80052
241263
49894
164183
181354
181355
95054
280051
111320
160535
108622
234272
233348
233349
189263
91900
230720
244301
203769
27214
27215
144321
224345
237470
59365
171290
94361
104943
183068
120582
147507
8270
188503
232884
126239
242167
247669
150701
68663
216378
224346
223330
15366
98910
79705
189821
89407
188965
188966
252994
167744
65543
237892
173347
55976
55977
197270
79107
259952
280686
161045
205324
185830
102373
44210
234641
218233
16251
153218
144902
6554
65858
55723
256207
175439
243377
156557
27217
174330
29568
35988
160728
160729
15368
35989
200247
200248
281063
158935
218534
91416
48991
185469
231219
62381
175783
177144
281174
184771
64430
92410
261777
281155
10893
59550
246005
156515
41813
242712
235200
252003
216856
249884
219434
219435
219436
226434
175268
206149
246402
232277
67069
142645
281521
176195
154074
250096
55978
15369
55979
250032
202712
101563
35882
141933
18396
241946
280687
280688
40910
243249
224988
265142
166469
190296
197597
280052
90930
62726
247670
55980
221572
42052
250562
56837
204461
161734
212606
161735
213370
85249
69166
45615
176197
85250
236634
57963
217697
166531
206150
81635
237915
144020
230901
71260
74364
253064
45183
126237
108245
161736
177081
241145
246439
132630
190415
280560
271370
169884
118518
179009
134703
177860
80053
273105
115515
115516
259490
226104
250097
52184
207210
207211
52185
246546
192929
182930
167759
186069
208921
88196
145437
145438
126588
180182
150579
197379
91731
197272
255142
182342
204288
179
83689
204670
239381
251898
251899
251900
102374
15372
15373
222037
222038
15374
222039
222040
79623
234642
256605
114356
137932
275060
94888
94889
94890
94891
17929
16041
256106
205541
205542
208327
208328
151091
208329
150118
150119
150136
235937
55725
283267
133486
151464
225880
246547
144277
53149
92497
92292
123678
123679
123680
123681
223576
29569
29570
40374
102341
194443
164075
83230
227333
28707
69949
52092
223133
123682
223134
223135
180316
250186
238254
180145
150580
34977
226435
232126
232127
29571
162770
283851
75594
115248
132665
55981
42767
16042
27220
161335
130041
23170
125340
102756
90931
241947
241948
223813
162534
229489
229490
229491
113579
92019
241011
250568
180146
59629
284311
267768
62893
174073
99966
224318
224319
224320
180242
10979
284373
146590
151738
44982
158558
226657
284467
284468
181438
158155
250569
140019
29496
189108
224756
101217
150557
252445
193040
228935
242548
78621
57892
48651
234230
13466
126589
4131
132228
88907
241065
284857
268560
93477
172558
177071
177072
103615
103617
103618
218574
218575
181165
93770
284985
251838
232128
35990
35991
15376
254636
62894
179579
225881
225882
225883
167379
230047
161777
284322
171420
41818
227832
227833
261774
180818
227897
231722
36931
168339
121968
242111
226548
106860
186771
285440
72635
23270
62895
120162
206803
68279
180056
34245
224321
38289
255277
11131
208988
68814
181251
144454
229492
59080
59081
62896
57965
44185
178257
175785
179580
57582
219437
219438
278618
278619
243283
184395
227350
182842
121072
255166
125482
260589
208330
198268
267609
163975
55726
85056
94841
175007
163180
25425
243413
243414
185646
244597
226597
85251
179902
71978
38736
163181
209380
164414
240025
64486
252004
219969
229493
144925
244045
244046
50788
168340
192427
244078
225306
116462
173544
224348
222785
62897
168724
213397
142514
142515
210311
108100
160853
286769
253325
10855
180129
245625
205184
224533
15377
40249
245616
244606
244607
59464
75229
249982
91417
216214
243845
51052
27223
252107
229494
168174
109587
206151
118186
257213
176093
87232
207269
211221
211222
180541
35883
287117
39213
251423
157537
167582
153764
219447
195223
239388
275105
287258
237839
201393
67527
263993
174075
194444
88519
250514
263178
161140
277512
287389
155643
155644
179581
61559
185959
172864
287456
245617
138874
258479
129532
276221
185753
224322
258592
233704
261516
276222
175786
111323
246006
70896
64359
192328
287659
254319
188504
163976
192428
41819
93176
16043
275078
165140
60713
51400
15380
232723
184842
67074
72568
201564
201578
275061
288078
215979
231725
147195
119808
80556
107596
51973
159572
18103
176136
131043
231975
192429
179582
198195
205016
273609
100287
163977
192431
157539
157540
157542
27792
150703
88330
124231
180609
242178
212607
232693
275787
78716
187527
288533
201604
187528
205393
247762
15381
141479
190919
216857
55984
244598
118137
41820
224323
93771
260469
180318
249757
241048
240757
166627
88520
218576
104735
208356
85439
189807
241049
248265
248266
111666
15382
270605
254320
118725
245626
289030
145881
16044
173139
137933
22000
224349
159649
252108
99079
251701
160734
289269
136821
289270
289271
289272
259305
259491
32768
119541
282905
225303
160735
289403
145978
29498
135186
196423
252270
55985
270227
127933
232348
224350
62415
153348
193078
179658
169447
65545
234700
59555
59556
219448
168238
277513
51404
125341
213371
64360
202756
79710
148524
255278
15385
163182
289942
197822
247039
116758
169025
88198
73217
7576
249885
234779
176273
39830
205869
238712
160779
161738
235938
163027
256216
150704
150705
219449
283852
281522
130669
108101
90932
141578
207619
235063
123683
142517
252271
250067
15864
219450
51407
203839
284374
227899
239747
191896
161739
157891
163998
225884
241073
128838
85252
157625
104736
153179
45067
222041
287390
80054
227967
163999
68442
110244
136783
118187
15388
179956
144322
32454
32456
15389
261517
201862
85253
290844
204129
193079
115819
59558
285332
289273
251438
248806
71444
214447
119618
193080
112450
263018
29099
172865
34463
163080
216858
285497
142999
241074
175417
65824
176274
60797
251902
226662
230728
142646
122967
222415
181357
180610
197380
208331
28708
150120
150121
150122
35886
239465
163124
163734
284090
246014
3206
81762
132631
195744
283309
283310
283311
283312
47433
291535
291536
80380
235940
37219
182490
123686
123687
29572
29574
29575
194288
62899
120583
120584
128560
109588
277514
194445
102377
58567
37220
172866
235882
238328
276394
35936
239467
239468
227834
277939
248320
192688
239643
16046
245627
251452
102379
245677
245678
166183
142518
161141
161142
161143
161144
239900
161145
161146
161147
161148
161149
161150
161151
208139
102519
292384
229151
95533
224325
224326
165143
156149
34464
35887
251439
7822
47311
274563
175010
179583
42322
157290
124887
47434
195201
224757
261182
292605
71455
71456
182471
274797
27244
243719
238911
197602
75237
277940
287056
125342
125343
223202
124021
210392
103622
125485
289943
185471
153219
153220
161176
215980
269732
223577
181
223578
25814
196005
133489
192818
262434
91419
254638
229495
259923
292978
292979
246648
262618
292986
56337
56338
225885
225886
225887
225888
225889
234183
278305
243720
243284
166184
166185
175604
293077
293078
261802
261803
261804
57589
245993
245679
227901
273351
197778
88715
182032
182033
146058
188547
144331
253332
150581
62385
152985
152986
34734
153349
60780
42818
148614
88331
189335
189336
207621
197779
182637
86460
162628
250859
255720
217743
162629
88203
256280
158837
287057
243406
238713
122434
227835
227836
227837
180319
152972
229496
293824
140309
65863
65864
65865
65866
205017
235000
237089
231211
175787
251453
261914
261915
59559
15392
199784
148525
176203
153935
19789
56339
56340
56341
56342
47435
59560
226336
62900
122435
29581
294000
161553
109589
287098
121969
121970
133885
168829
245618
124022
222789
207953
239017
78096
294411
294412
235184
232349
232350
15393
39544
246134
107071
220082
229412
18399
16527
29582
108744
75424
142888
249178
175788
277941
277942
277943
277779
293079
69182
187529
78473
245213
53156
53157
53158
26044
183071
67431
67432
160424
70994
51865
81685
51011
193427
122422
180612
134949
134950
134951
169877
66637
254668
71588
124888
23128
204895
200647
241075
241076
129533
119542
295002
295003
295004
190436
98201
195225
159992
159993
234184
261805
39214
23026
88205
273520
93180
127956
229159
99590
209214
293582
81763
180550
72259
184437
246440
246015
71262
71264
247155
247156
130580
130582
71316
180551
180552
261113
201592
201593
201594
201595
250099
201580
201581
175999
76243
148797
189822
53006
120585
51745
250570
159994
159995
189990
231728
27246
76244
279169
248508
65868
181417
189473
192432
250033
128839
295555
279243
121971
295586
265886
192433
88206
88208
236002
236003
180613
242550
112451
112452
112453
228516
278306
208216
295791
295792
292982
226594
191686
73059
184403
195587
232529
93718
89410
275788
248321
115780
158201
84791
205394
146061
197780
225307
202880
248578
172867
34736
166475
121972
296014
296015
296064
240936
249179
296086
96100
99517
109590
233350
233351
153936
240937
296205
292987
295810
262619
159258
205395
205396
208357
72261
234961
73060
223150
238912
38292
284986
237140
189532
265024
269813
175384
177084
211035
158937
248510
265887
111529
96848
47436
265888
265889
47437
170577
275107
287896
242133
158713
232939
95024
296620
154555
246016
246017
250100
250101
165278
55987
190437
189338
229414
280748
182281
132408
194473
41829
159892
205018
151487
245682
245683
64361
250102
250103
141796
108300
207622
134613
228517
62417
16047
182931
191389
3207
235080
235081
109943
249677
291530
259182
297050
54965
99594
253068
228924
294010
59562
59563
267320
125278
175573
192297
236225
238714
238715
99814
65871
249678
154077
297223
297224
253069
248882
67433
131742
250034
236213
238039
179904
146483
116464
152928
292704
207623
15394
172868
220083
148594
259829
15395
293080
211141
239616
176236
289405
213372
177637
163082
15396
284469
162036
297574
149264
243721
243722
269814
297575
241677
282175
168005
81769
272767
144332
107565
277615
158938
89762
277616
40911
27251
134708
238990
193464
231372
248807
231373
201596
15397
15398
285333
243333
297683
175118
98912
297792
248808
186451
221440
165596
27252
278860
207056
176632
128484
11132
72842
126765
98203
105344
175510
223319
261114
101565
214207
298024
273352
40912
298025
145408
41830
76803
210312
175791
94892
123425
122423
198600
238225
238226
161049
236374
298177
176275
222042
222043
222044
298255
281359
109591
109592
224352
179013
136786
233208
199863
178122
41831
123426
123427
150124
80566
282662
18401
298418
55988
15399
193147
130583
197957
269630
160536
123688
123689
123691
64437
231730
38293
102345
244303
245994
245995
82916
149469
237894
102380
189995
115825
60976
279342
197653
287873
172131
124023
117933
127977
137311
210103
92596
21015
92597
190975
224328
223203
239473
75595
164000
290336
290337
239901
103444
239544
99024
190241
192689
168258
229162
156867
298788
239565
234373
234374
239740
207214
207215
78099
247040
247347
197381
224766
95055
103788
55989
184270
240024
281476
226439
213162
147599
289382
184404
284323
174077
224329
159970
142519
160780
240402
83704
83705
187676
153350
51416
103624
213408
227458
232351
255486
146345
274690
44540
197252
130671
73551
260186
224758
72262
157543
5824
210023
292626
299276
192174
160858
247348
161740
128691
128692
180822
142240
282663
13468
13469
184679
184680
210393
103625
247671
147918
252630
90933
224707
203627
241365
15403
81435
94068
128693
18252
192436
241678
41351
198326
161179
177582
45874
245619
59564
101566
101567
57893
166186
166187
261856
55728
166273
227903
227904
227905
243978
179958
299875
181926
192437
173545
242114
197781
35889
18406
15404
160738
196006
297057
206849
299997
182035
182036
182037
186573
260394
226440
166478
166479
126594
182638
148771
177086
237296
294404
219451
37324
238876
244582
242573
242574
242575
232092
245025
249758
128694
229415
219754
197782
51423
242782
61564
157544
289406
180183
223204
246018
274843
153919
134978
4638
251333
130584
190683
244147
176204
247157
244304
244305
136787
175052
250713
250714
250715
148527
94893
85255
85256
278561
34255
207624
57410
159147
91205
207625
183342
206152
241215
153888
205401
9807
267750
227907
137603
300536
176082
156869
236236
206782
69185
226337
113586
91738
93851
131053
170076
168242
27256
128564
59566
177087
220084
296206
277384
203137
239018
27795
238991
300537
242576
277515
300859
300860
92002
210018
286763
247560
180131
40251
164001
175611
229497
177073
35890
268828
86462
253992
206153
80567
145439
301079
301080
176141
234963
244306
211224
155569
40252
218733
95966
203138
285746
165291
241050
180617
296087
296088
277129
58430
195444
78475
120181
180618
122426
101568
219970
160253
195191
196007
196008
255167
190504
268461
213163
244408
244409
106294
242169
78354
240761
31467
78476
34751
73062
245684
245685
276860
247274
222416
191765
205235
243343
260828
223205
232352
207754
163184
202270
116870
154556
86131
247764
18737
205403
159972
130050
177088
233816
130850
65551
224767
197958
197959
142283
233132
235686
72578
205074
205075
71265
130585
130587
130588
180553
295587
34753
249679
99596
279058
189823
126599
177089
89108
224710
77750
296207
215983
130051
177090
64488
236004
197783
197784
261808
126626
191899
176633
249969
301901
279244
279245
231128
220085
60626
131204
287099
65552
40913
179586
179587
179589
179590
295908
10225
253993
52196
52197
212912
226595
231601
93188
224989
281477
281478
57593
257917
157545
121181
277761
241768
241769
247275
41833
221913
88332
215506
215507
238992
248071
60627
236237
93822
245524
128695
241077
163979
187099
255148
247672
284325
155574
64438
233209
181359
179961
296621
192298
237502
269344
230113
179962
274565
164187
164188
203557
297058
278562
32458
150585
260590
108623
108624
94623
120817
236971
258727
290821
201727
204896
205404
53464
282046
288902
91904
268462
238908
101569
211087
211088
241217
234964
162255
22223
142037
173188
22004
22005
226441
39736
299277
166480
174909
43375
269345
217699
101775
109593
66594
72583
120586
252376
289285
289286
37121
188971
217274
109594
170507
238993
238994
237863
200332
193038
176094
102382
102469
255149
20584
93189
221914
123692
129534
272182
261810
289762
166481
224990
177145
224813
224814
65555
189915
273995
215157
269645
295687
128696
299278
91906
292627
108250
159652
246683
196009
196010
202758
235082
235083
235084
99597
175011
34756
65556
274798
255140
157362
126172
280025
181147
156517
167421
68075
250187
80864
226442
190979
256666
250104
158312
33071
59475
110516
83299
303299
239007
250035
57894
140363
164002
259089
75427
75428
51429
109595
238995
60811
217238
109596
298790
247561
161418
213164
92598
15408
127083
256667
127156
259340
259341
244307
109597
195192
198601
255198
287088
222699
12106
196905
238996
239019
86212
284789
301081
287582
259520
57895
236761
166877
238914
241679
117210
187
224712
303691
116874
27269
237864
5827
221915
263180
208332
240909
162421
15411
193256
248809
248810
96958
193288
275079
288925
172869
161742
235944
276116
237758
138149
263238
274844
131938
263681
161180
301445
224991
237865
182038
182642
132752
101570
181025
133451
282181
29704
93777
197397
62901
191766
219442
245026
246549
154083
206268
206269
147947
176635
172870
222045
251456
251457
78101
123428
273522
251903
251904
251905
243103
102384
222046
150125
150126
184582
102035
100260
100261
175792
62483
252239
113587
208333
208334
208335
208336
208337
152415
240403
94894
77754
198602
112454
130590
246443
246444
304258
304259
182491
123693
128803
75429
75433
194310
223207
102347
211225
226443
15412
57896
175440
175441
27270
227334
15413
245027
237898
180839
277516
179592
274691
274692
219719
226452
255230
210105
185754
274036
65557
7824
172871
161743
273896
176096
239741
175013
263239
100527
119088
239903
209381
209382
95056
276333
276334
276335
224768
179890
130856
130857
41837
5262
55990
302465
247361
170676
250529
260324
267769
174080
205020
224330
224331
224332
183188
298702
186775
139398
34466
34467
93137
55991
55730
59570
59571
273107
260217
224759
224760
206154
220087
99010
195746
195747
206155
283375
283376
71445
71446
207628
207629
193582
103541
125284
227125
226566
113588
283435
159413
4646
210395
151864
151865
103626
103627
103628
103629
103630
48996
48997
103801
44748
223579
223581
154084
86186
159996
265517
195229
163980
274344
241306
225897
141429
225900
61895
26534
37833
256107
166188
218982
152507
253215
260793
171212
15415
182282
68827
238965
159415
166483
146067
226504
179051
159997
242120
187681
300063
40915
161652
55994
132753
275635
255495
219452
218734
303785
242577
165599
84836
276323
276324
153069
146592
305799
122892
274845
274846
274847
191321
191322
191323
27271
88216
179593
179594
122427
276336
182844
176097
98398
98399
195748
12107
156961
175015
148528
306052
239983
304226
304227
207969
206156
300514
261868
274922
89412
277113
177583
168244
9692
265518
168245
89719
66646
251346
77526
77527
61567
93190
216234
223208
153765
91235
219638
219639
103632
238997
205879
230498
190311
238916
238917
241078
159416
142520
184343
162636
55731
299190
299012
240598
159893
225312
246808
59573
128337
278862
242569
278863
229416
203563
293728
221625
211226
241041
306581
230466
59575
257650
102385
195230
175016
282907
203770
219453
255496
185477
302199
78893
41842
146593
209645
215011
104277
182472
51437
147561
301986
129343
77528
164783
202731
185478
166189
160781
59578
173071
222134
193430
223209
182283
260377
227059
295345
247078
247079
229702
229703
229704
258745
15416
306961
78479
197962
94072
94073
194849
243106
147006
167846
250105
111530
71447
76257
286765
93825
159692
254802
232836
297716
12728
107598
293037
293038
186580
62902
205326
192443
259525
259526
238799
207371
258968
250989
201876
237900
284358
284359
284360
150129
247080
61340
59579
179596
135188
180326
249386
298455
293825
41843
306054
105769
306582
40916
40917
293039
247081
295794
254803
235004
176084
88334
88335
278488
180622
118542
219164
184406
235187
302200
302201
64096
73733
27273
151643
205533
205534
208364
270404
116085
226587
15417
281724
273568
200238
186214
238918
181361
44749
72263
189154
207060
209291
265686
27275
27276
164003
214208
257600
158848
158849
224354
130860
171293
203771
203772
207631
197712
185479
176879
291538
63946
63947
246020
65558
150130
207632
27277
78110
307875
33795
247082
246445
276337
290847
35895
185648
127962
267458
118155
247278
72264
144335
86749
62056
231244
223140
248268
252022
275490
275491
246022
175017
241042
242929
203564
248074
247900
205021
180556
297576
302014
120587
34468
109599
171687
59580
59583
19790
78480
229299
180327
205405
249717
15418
15419
261456
104737
104738
247901
235883
235884
226456
151489
87384
15420
61571
105685
248579
195194
249718
191602
257601
173074
132175
219145
16051
218984
264478
206158
59584
225317
247161
156610
108625
188706
120588
209364
300956
308416
190312
224355
224693
294845
140311
197283
275014
287937
304260
251054
252377
206784
250588
239155
306155
244769
263023
33149
206544
224438
179966
38296
263024
222771
182287
246446
293298
16331
164398
238227
139399
158942
148097
298183
39755
39756
39757
176277
176278
223236
238639
184486
196011
252240
222389
306692
208338
208339
208340
208341
208342
208343
208344
208345
208346
162959
208347
41846
291539
15866
156669
189982
123694
123695
123696
29589
211145
225236
57897
57898
164078
166190
48046
163185
163186
294413
279343
279344
279345
279346
277517
277518
172872
239008
35897
164200
261545
273868
159872
209435
209436
230742
224356
124234
161744
98094
189459
195762
16053
82371
256784
256785
256786
251458
205406
209303
42202
239908
250853
250855
242127
70674
70675
153233
240114
41848
188549
188550
103633
288609
190267
271745
229499
58411
121083
229500
244608
179597
175633
232353
232354
232355
108155
238919
226338
267459
246551
180623
251906
230055
158943
226855
163716
309404
84617
93492
250752
224949
103634
81548
151866
64097
64098
297420
103636
103638
182492
181148
84618
93829
292832
181170
140138
182288
146594
273898
35907
274698
219443
219444
195923
127415
11134
27282
181028
225905
309405
290864
51880
128840
113592
175696
72593
166191
166192
166193
245621
159998
240800
136331
309754
114831
192446
190926
141489
195750
188510
34469
66001
182039
182040
182041
182042
257049
247829
127469
302314
302315
302316
149381
153234
192178
235007
152930
218735
239618
242578
242579
179598
261671
177100
177101
103448
250036
250856
250284
206127
281360
254149
151100
231866
129473
248322
298040
258049
310170
310171
239009
227838
227839
259367
161052
127470
209304
209305
303949
85442
137613
227913
145435
224769
224770
138330
86215
201454
167708
59585
254639
262435
224995
198603
232356
217945
310335
27286
206951
180827
62905
62906
155703
155704
295269
142523
142524
105695
226444
176562
17186
57899
163088
230743
56351
237806
280180
280181
310431
257145
231318
55732
244609
244610
277762
277763
287089
27289
159999
27290
229417
303561
231392
229528
193586
160000
123969
236247
231234
169573
199940
285748
295768
278022
239156
239157
239158
185649
310640
310641
307867
310650
262044
120589
107412
193260
24956
194447
294846
235277
306736
78483
260830
249759
258480
27291
276861
224719
282562
255781
243346
232912
141074
223210
103639
221670
221671
310828
170508
239545
94175
277764
277765
277766
306859
306860
287118
248511
65560
239478
206952
137313
277131
277132
277133
302716
302717
71267
189116
208505
288080
150313
239479
300461
235948
180558
180559
303787
173431
151101
99522
173316
237843
237844
250716
249974
279249
279250
279251
207373
234038
147922
184278
59588
235886
302015
108626
241899
116877
189155
41852
288378
232505
169879
242183
184407
184408
153987
279194
236013
311151
311152
241081
164005
225323
197790
247675
187683
187685
40918
136573
290581
80055
145514
224721
206408
266032
274566
263240
34470
284597
57900
27294
27295
27296
299691
238909
260831
155351
238064
274848
248812
288926
173546
103402
188511
158946
248512
55998
224548
292984
234235
292580
261835
289383
98916
242122
242137
242138
190983
246024
311450
156671
119090
153235
139786
103449
182569
198604
181029
237476
237477
139400
160782
65875
307170
177388
247287
261813
261814
311511
111613
234186
291243
151104
151105
310771
182473
274660
159654
164201
9926
206785
235887
221716
239383
148341
230744
204905
190268
205025
198605
206513
266034
311630
261546
134477
59590
100149
175021
175022
268830
175023
175024
245622
245809
205543
299692
268831
173110
250188
219399
296623
293829
293830
65876
188821
177389
139403
178132
205342
175795
310432
145475
242188
260832
239546
124235
251360
34760
223318
280178
192448
74012
219432
178133
303789
212283
27299
231393
176213
270539
161748
161749
156966
241043
289407
287119
15428
260736
183385
308383
245731
245732
235949
142595
95865
278622
101571
192922
189117
273405
250037
293826
136574
176280
279359
307321
235950
133501
235888
240404
179113
102350
287939
278865
107600
202672
235951
250189
298507
207238
41855
301481
221672
151107
237866
128841
311512
188512
282563
310829
139404
224334
222048
238230
238255
205026
251907
273523
248270
301721
245029
222049
222050
269283
193296
193298
197475
219625
219626
196012
180625
222390
252996
208349
205544
208350
208351
208352
283102
283103
35910
176087
274699
62908
201587
222700
123697
273499
195751
229418
223211
202733
128574
194448
303846
27300
277222
275032
102494
102496
238447
175425
185755
185756
273869
147600
205237
17129
239480
239483
75596
75597
160783
161751
161752
283342
283343
108628
93224
265188
252998
252999
253000
288260
248271
69200
243407
243408
186173
207662
306129
306130
215380
277870
151093
259492
235188
59634
240293
224335
224336
175426
284379
264362
284380
284381
284382
242580
287124
263643
284317
284318
206786
89383
198270
88225
62404
259100
93831
223193
223194
292628
290865
205412
205413
195752
190596
190597
195753
145414
145415
195927
283436
305152
26922
184843
268996
103640
103641
266210
240118
242727
291297
241312
241313
239241
79635
173320
250190
274700
225522
276415
195928
241314
241683
241685
259531
57902
165293
287100
247279
284326
219627
211092
211093
175635
211095
273570
273571
288850
166195
293083
185650
148222
283344
260833
278023
278024
232093
227915
192450
196500
85931
88721
187582
242189
197147
149481
15430
313179
182043
276022
173548
300033
254804
197239
250191
195146
227714
227715
313180
313181
215894
310122
310123
310124
177390
223195
223196
224950
196184
300113
300114
187530
148296
243104
187686
225324
164767
180560
255168
208168
204640
198271
161753
148619
148620
176638
155310
148621
148622
203925
164006
276075
259368
244583
141801
251459
224771
313522
233694
230132
275819
275820
34472
312246
312247
275080
256672
156967
276719
88226
251839
244082
244083
224723
153940
244212
244213
244214
192451
45185
232357
287101
252518
294243
277650
238998
238999
239000
142527
226445
15431
287102
299812
231836
246403
219810
287090
75598
287091
229421
229422
193261
193262
184649
278716
278717
198272
198273
218737
313523
281536
191768
285498
199884
180849
253003
95945
309259
89414
275081
234095
294633
294634
184844
219400
182474
72845
88227
283592
181362
289961
289962
78897
238921
281362
52209
52210
244897
285222
185482
65879
241083
170077
245686
260834
232846
251279
245860
186476
73072
223213
245267
182290
301482
287583
233706
287584
267991
235377
276577
276578
87075
87076
224439
230923
156803
276721
16056
51463
227919
251101
251102
246552
248817
47609
246632
246633
286767
246629
246630
275064
250192
195147
202887
215984
294608
180565
283230
244248
246007
86241
279252
234041
62037
250068
210074
65566
184280
247356
247357
287874
197654
57903
80056
105782
262455
247676
247677
107918
254158
290763
158428
227920
267782
139788
307312
288261
288262
296626
201981
88722
145416
107685
180329
114610
189912
283731
145477
40920
289665
306055
251425
226448
250038
292397
34473
193466
291468
91908
277651
192453
288263
101572
261062
248515
302391
101300
236999
224359
265891
251334
279097
279098
279099
93862
259493
232358
232359
232360
288851
297629
175428
262987
192454
35914
239001
239002
250533
151094
170078
230459
185651
248272
211153
276416
80840
249913
180829
258584
170079
125936
251103
251104
235085
235086
248818
248819
186014
238449
175442
263022
75599
50139
278719
261765
249977
249978
238015
218286
290866
258213
231842
291244
73675
223137
245687
240166
240167
219941
196426
229726
247288
182570
237001
88336
237504
180850
180851
242753
290764
176216
176217
303862
285400
17130
245688
267783
211155
312297
221718
303864
201565
296628
10897
240119
281537
313068
205344
205345
278489
101573
252378
237002
303847
155311
221367
225328
237505
231990
155472
197655
259091
290765
238233
240121
226616
226617
222051
222052
159656
222053
193305
208181
304165
304166
289666
245215
237902
237903
180629
180630
208353
244308
198606
238786
238787
238788
238789
238790
192172
73676
246553
279078
291540
291541
279079
239486
238877
123698
123699
235891
250571
56001
283771
289667
139748
215353
291967
308369
308370
166521
166522
239487
75600
265051
265052
223430
101576
161756
179601
189156
209262
230460
129474
310772
185485
203146
258547
306128
59596
59597
240123
240124
240126
240127
213165
251440
180134
244085
270966
288635
163090
224337
245623
247162
250572
56815
190987
308371
274695
274697
292629
175429
139749
231749
299284
286775
255940
165498
311631
151867
167396
275030
180570
254010
208354
188006
27318
303677
254166
241315
232361
274039
310133
254640
239389
175026
105697
105698
280179
241690
241691
241692
206128
180136
225910
88231
221917
221918
116878
116879
116880
227921
207637
220088
242118
313141
263132
190935
214575
214576
299924
293473
182047
197243
151110
267461
197292
197293
305598
261672
133261
293302
293303
107602
107603
107924
273349
198609
221816
315683
182050
298026
298027
185487
242581
242582
273350
261673
243994
243995
130869
243997
293489
310125
172875
220089
220090
290143
290144
104573
104574
220092
260397
276658
276659
288637
223214
239992
239993
35917
35918
224772
224773
153994
263134
254169
187102
59599
59601
244086
244087
244088
142287
310818
310819
239994
104575
277519
277520
62917
172876
172877
228907
228908
315684
315685
210317
210318
150563
210320
105700
301451
250573
229152
247290
294414
255941
195929
223224
275822
245133
285749
285750
303562
230745
230746
230747
315364
285499
221632
285501
241044
241045
239621
207063
283772
255942
255943
285751
283032
283033
310651
185488
245216
260835
209662
297242
176099
73073
216217
156387
287457
129475
129476
129477
129478
241085
295688
291245
247280
294990
221919
213374
181808
174340
107604
287586
258657
258658
272951
215942
84622
258807
177109
156395
190322
165499
246554
262326
190988
276722
276723
227923
126469
247163
71269
215895
246555
253071
303251
303252
224734
224736
285502
145442
145443
261674
146605
308527
284790
312777
254176
192455
250719
238451
246405
134713
159262
246027
295010
180333
108629
247359
316332
316333
238923
167614
107926
107927
157547
293359
290766
314736
233696
316377
239004
57904
302205
295011
288538
256758
260737
215943
263025
151113
151114
151115
191771
308528
159701
218292
161757
260419
151117
151118
277533
237906
237907
181363
202523
313771
215354
215355
215356
244309
311336
219641
299191
151119
251350
178143
178144
292581
116467
215357
215358
14799
247089
193311
256154
233708
34476
234096
315478
316506
215896
248883
231399
293152
186591
234967
180137
251351
275823
207064
311977
190990
280887
61582
189892
136337
189918
311963
249761
311632
245999
235017
273871
273872
293827
40923
241087
259102
276725
215897
210021
226451
245810
262568
186070
306962
303101
283306
147596
283853
261191
278868
209178
209179
209180
300002
291246
168796
281553
283034
251352
310821
310652
238128
270835
215985
288566
238925
293474
206788
238129
238130
316500
159266
149391
242951
310134
227351
198611
299192
159267
237908
303694
209365
242583
15440
297243
206789
114135
240910
207066
270998
181118
151122
136338
221920
249140
250285
273057
218295
299925
309527
261675
284808
308529
303980
275824
273058
57123
225333
248884