173052
175686
175687
196026
175688
203209
298686
196027
298687
298688
298689
196028
301805
301806
301807
301808
301809
196029
196030
196031
196032
196033
196034
196035
196036
196037
196038
196039
196040
196041
136688
196042