1561
3694
17693
2863
26598
31191
32072
2130
15274
17111
4401
45995
3697
48729
48731
28723
10278
1258
53121
32921
59853
8946
19967
8719
50771
1639
66581
32394
72422
46988
21472
8457
6469
9464
23382
1228
1230
67048
89069
12440
61724
79261
96701
51315
51316
34957
70639
65126
2656
107275
108871
12478
15223
106893
3737
81000
48740
32927
47343
74904
98583
24648
122432
123018
73077
57809
130245
46184
66584
72223
66585
132622
26950
137102
77852
42284
71466
57530
111060
2790
96363
32293
150176
3751
107277
122939
48745
42285
20089
75171
92303
137109
62072
83980
18453
97194
169691
32073
23390
26563
31842
10975
91083
41741
149851
30095
84090
130246
54066
48747
155401
133718
77855
32942
87512
19888
8769
85997
61903
190214
109514
73046
188795
107278
74907
188796
33571
85047
159784
118449
51514
92182
202130
202592
17694
52974
21872
40550
107279
32948
6901
83664
31200
12215
58393
92636
12429
62658
32299
58644
109178
84099
217805
186304
8490
109988
77709
75179
77004
30064
19626
48752
93471
164486
77005
55964
169495
775
89228
6904
92641
132639
96710
230855
170573
32955
32836
172786
84100
155113
175382
32956
162038
2660
207517
51363
84101
217982
57948
24331
121748
17114
93410
53141
59308
19997
53142
169693
234591
246463
32958
75186
137511
31059
193036
149975
91090
189815
189816
34556
73731
7648
84102
223002
150178
8954
24266
96717
221551
87060
48755
23408
110823
141944
43974
40532
200832
62375
85021
73053
258069
107700
23519
122104
66590
51694
250089
250090
132624
189818
1626
162039
34558
123580
31213
52172
32960
66591
132626
1627
75192
192905
188501
189819
17695
240297
122433
257632
175580
188799
78791
75193
51603
83676
213605
175581
157284
57954
6306
106244
106245
69153
103604
264366
57956
57957
197686
122108
75196
40551
268232
69154
51380
169016
169017
118450
187200
132627
172192
271355
72668
142636
165137
29562
17696
266155
32969
175589
199375
189132
189133
75203
146344
91102
96726
46997
49499
81291
81292
105965
21873
51385
23419
277268
277269
45997
34243
74911
49099
189820
149852
118568
74912
84103
106914
106915
84104
189821
137535
80848
137536
155689
83688
80015
175383
103614
155751
189134
131432
137537
32974
132630
6924
89119
58362
239031
26601
75214
78075
96731
207083
173571
173572
112955
42318
215790
175139
102756
83691
146517
146519
271568
271569
96733
140019
130624
210387
183000
169022
118090
175141
74916
184154
78077
5820
78078
146520
118451
197010
75228
258537
9026
175591
63765
189135
189136
239388
67527
230708
230709
175068
32328
170529
89555
189137
52186
60889
75231
74917
32977
32978
188802
58192
154437
193037
41820
78841
81298
188804
130247
175600
53152
13481
75235
106206
32979
154260
81302
158772
153179
89920
289591
264476
239036
174408
81305
132631
107084
170525
43864
188133
69180
224562
92652
96741
78517
228196
113313
84030
102764
246910
190219
118453
175106
189140
175607
96742
96743
175145
74918
170527
51414
102766
61741
246441
32982
32983
32984
32986
32987
46185
52189
130627
117946
189822
17697
28039
148975
65152
234851
101348
175149
175384
175107
173373
204212
250101
84032
118454
259182
54965
118455
82290
264281
42326
246442
32993
130634
65154
59862
65987
240298
207230
271356
170535
82590
259217
100291
162049
92664
92665
92667
92668
92669
110824
175150
78099
105976
69813
189145
189146
40557
40559
96747
9029
75245
207258
240299
101566
101567
175152
170536
107395
166359
40539
51421
230714
105977
51422
261155
122118
32994
53045
122119
122120
110825
144105
118457
96232
96233
197113
106928
122121
129605
155760
119486
143006
92673
92675
96755
32996
269243
170537
33001
33002
33004
33009
85024
129606
78521
17698
101569
280426
257872
33010
197116
193038
162053
280601
218234
107286
31682
170538
191122
33012
271357
77054
77055
242170
5826
259221
23437
107287
163262
163263
163264
202140
202141
202142
304096
255490
304097
129609
84105
304120
84106
207235
118091
118092
260262
271358
271359
149976
149977
149978
149979
149980
132635
130635
259257
186429
186430
186431
33013
259258
75247
78086
304305
118458
118459
118460
118461
118462
234007
186537
18261
234008
51430
163265
92677
92678
92679
263222
175012
175013
194957
194958
207085
23439
23440
23441
48761
81141
224563
96756
200837
155764
253994
219976
146522
207276
207277
304924
297033
304925
40560
274693
274694
175388
175389
26602
169507
169508
169509
169510
271360
305015
257501
48783
48784
48785
48786
266156
266157
266158
160137
196168
196169
196170
141808
118576
196172
65156
269249
169030
151951
241638
226778
287430
234009
170539
170540
170541
40564
299140
109651
106934
106935
106936
118463
132126
50640
50641
263174
263175
263176
96758
96759
264369
264370
264371
264372
140025
277271
277272
246302
276189
96760
276191
96761
276193
175623
295236
265356
269250
169033
40565
217098
175154
217099
217100
217101
61743
143010
194959
185884
109515
109516
12669
109517
109518
109519
109520
12670
174409
46186
46187
66596
73180
122123
194960
265357
284045
284046
186183
21358
110827
110828
110829
110830
110831
72423
72424
144106
110832
118464
277273
70655
70656
296526
296527
296528
218718
218719
218720
218721
131295
51631
111061
306413
162636
261434
261435
48763
123019
123020
266160
259259
259261
259222
259223
287035
155765
59863
70657
259263
189150
175155
287036
189151
257832
269244
299141
299142
299143
50643
304266
304267
304268
33014
169522
96762
208660
208661
51436
185430
63450
23443
108872
23444
108873
306740
306741
305016
305017
107288
107289
107290
118465
42335
144032
48764
132343
283058
283059
194961
194962
109521
109522
230856
217806
33015
304121
84107
84108
304122
304904
304905
217807
217808
217809
217810
217811
217812
217813
215914
217814
33016
217815
304125
304126
84109
96767
173585
118466
118467
156508
130248
118469
287037
287038
51633
51635
143019
143022
281298
33017
33018
33019
173586
33020
174410
174411
259195
230857
230858
167846
259224
259225
259226
1629
66597
66598
280602
1630
259227
259228
259229
259230
242822
259231
283794
118093
75250
170542
304906
304907
304908
259264
259232
259254
259233
259234
259255
118470
194963
194965
266711
304909
304910
304911
304912
263337
263338
263339
264282
143026
81315
303560
292117
107085
191124
62396
151643
158188
279953
81316
279954
217104
175156
306414
252074
259184
66599
66600
66601
109523
33021
33022
307754
307755
307756
17699
17700
107086
107087
107088
107089
107090
48765
66409
130636
295379
295380
295381
109524
33024
259265
33025
281299
259236
118062
118063
280603
137538
280604
280605
175157
175158
80274
263340
269251
304123
304124
304368
33026
33027
281300
33028
169524
169525
169526
75255
226781
42339
193047
173592
185047
173593
173594
173595
110833
253302
81318
281301
257502
304926
304927
283060
263341
48787
304369
304370
304371
304372
264283
274148
301921
271361
296529
191126
130637
130638
33029
33030
283061
259196
46188
46189
154445
130639
165445
258070
207087
207088
143030
224621
113955
113956
48766
304195
200840
283282
207089
50646
284435
75256
32078
308120
1316
106940
96768
234012
133719
133720
51446
149474
133721
257843
257844
226786
96772
201139
146523
106942
303356
33033
33034
33035
242824
239479
33038
33039
43760
48770
48772
75260
137539
186438
62403
188821
169532
149981
48776
211291
303486
186439
311915
169695
207238
41855
23451
23452
143036
84049
312108
312109
217983
312110
146524
146525
258071
258072
258073
258074
258075
258076
258077
311916
311917
291930
291931
291932
291933
268236
149982
149983
200848
200849
263531
304402
263532
252426
252427
89091
307045
307046
307047
307048
307049
307050
307051
33040
33041
263533
263534
263535
175161
217984
149476
149477
223237
264284
291934
162064
17129
239480
239481
284441
284442
266162
264285
290986
290987
170551
57974
170552
288260
96777
194966
264294
264295
264296
264297
200853
267512
62404
169535
169536
169537
169538
111062
75261
162639
291258
210397
210398
144110
151956
151957
81319
81320
300119
217112
217113
75263
111063
50650
50651
96780
264373
75265
75266
75267
75268
166360
166361
254007
172762
305955
305956
276195
276196
276197
276198
155767
306499
306500
118472
281006
281007
281008
143366
284436
284437
23455
23456
158775
158776
258078
273506
200856
200857
200858
158777
285753
269246
313570
48779
268237
268238
122436
122437
219591
188042
217114
111064
287431
287432
190221
286025
286026
291259
291260
291261
291262
291263
276199
118473
133722
33042
169539
169540
264286
264287
173599
172764
226275
81321
111065
63461
63469
63470
266163
266164
196095
254948
259238
1631
259239
84113
84114
264288
210399
118579
118580
118581
284443
284444
84052
165446
23458
224566
118474
291264
259240
259241
259242
246474
284438
151958
130249
118475
118476
258079
106262
12671
217874
246448
246449
246450
33043
33044
33045
33046
33047
33048
33049
33050
33051
231383
130640
130641
130642
130643
130644
130645
130646
92237
300946
300947
300948
259243
26603
259095
259096
92238
92239
130647
305957
305958
259244
259245
66604
66605
132637
132638
287054
259270
286027
286028
286029
286030
286031
53167
162640
281009
281010
314197
118477
130250
267513
269247
234013
188043
289662
299750
144246
258343
254949
81322
74192
300120
300121
218722
218723
306164
118478
304269
66606
82808
82809
305959
82810
82811
82812
202573
305960
251055
109179
306353
33053
259246
259247
217985
204023
26604
287055
253304
96784
217986
217987
204024
280428
314198
314199
190223
281011
226276
226277
226278
84115
264289
130648
289663
289664
143368
75272
190393
75273
146526
146527
175164
132646
226279
259272
259274
290253
81324
109180
311801
311802
285754
48780
313571
239485
17130
259275
286032
289117
17131
89092
92240
254950
144112
246475
89093
21877
294391
294392
294393
294394
294395
294396
294397
294398
300122
295406
283285
132344
178310
178311
224567
224568
140027
224569
224570
224571
224572
118095
118096
175079
175080
175081
109652
109653
109654
109655
109656
293403
293404
149984
234621
234622
84117
84118
294562
298281
298282
262481
149985
149988
84055
84056
315126
207090
207091
130649
130650
137540
150179
150180
302676
302677
175170
175171
149486
283434
306502
106943
291935
291936
155770
155771
155772
155776
175637
175638
194968
231872
231873
150181
118479
255491
255492
257633
295308
274605
301175
234623
283286
305189
305190
305191
171554
171555
171556
218724
218725
218726
140028
239875
239876
297739
217118
217119
217120
217121
305265
305266
234014
96789
96790
257503
257504
284439
284440
218535
218536
123021
123022
293405
269248
295237
233663
233664
295874
295875
295876
295877
295878
306451
306452
293406
166362
166363
255779
219593
217124
276200
276201
81325
81326
306501
272563
287332
234015
274606
274607
274608
122438
284954
169696
169697
169698
217988
217989
217990
266712
266713
266714
123023
266715
284955
284956
220323
220324
220325
220326
66607
75277
272564
234016
234017
293210
305381
144247
144248
299086
299087
284445
284446
284957
284447
196100
196101
196102
196103
284448
284449
284450
122439
84065
286033
286034
218727
218728
218729
218730
218731
96237
254031
169542
169543
96791
306453
306454
175110
304307
304308
304309
291133
290546
290547
266716
266717
313158
313159
313160
313161
129629
295238
286497
246304
246305
286036
286037
234624
84119
84120
230900
286038
84068
110834
110835
110836
96794
304929
304931
304932
295239
304310
53172
53173
53174
53175
295309
295967
32079
118481
12672
75278
295407
220145
92187
201481
201482
130651
66609
259249
1632
1633
259250
66610
220146
220147
118097
234018
231878
231879
231880
231881
231882
81328
188836
295968
314098
314099
171559
305380
32080
32081
149127
295240
295241
303487
264290
264291
302678
122440
122441
315127
315979
287333
175800
190812
288709
217125
82813
82814
82815
304271
254032
305961
259282
259283
293211
210157
194970
217991
217992
220148
220149
45998
315128
246306
315018
258344
132345
84070
132346
132347
315129
258345
254033
149128
304311
291937
302679
287039
287040
284451
17701
290606
17702
251056
122442
175173
306504
84116
266718
299088