6877
7817
24234
46315
16479
29534
15278
46988
84709
61724
22979
96228
6886
90553
42284
29541
69672
92303
167
57865
92075
150573
163960
15297
64093
58487
97640
27621
32073
25769
31501
1528
41741
30095
29545
77855
73043
78250
50117
7127
87054
127613
43722
92397
13449
85048
198276
63370
142838
30926
23976
46750
69573
200831
84712
4997
32679
175003
81125
106481
12215
32949
72854
198278
61729
165132
44002
74999
67429
52082
220513
84713
67247
28816
54168
38924
195059
195060
66560
227260
202924
235280
29554
35929
119960
180602
202464
34554
15331
141930
84714
159191
169693
38301
75186
113417
106286
158163
38302
124082
139275
44942
195062
30927
173425
90929
253986
87060
130838
61732
79584
6909
123580
142986
204573
168252
188501
142988
157284
83677
64354
69153
136521
118561
42311
157285
75197
69561
6914
149463
69154
10977
201167
166826
83679
6917
47431
29562
205180
179005
57890
114169
114171
28829
49499
159192
142992
113869
162933
106287
35881
18393
273447
204964
179006
179008
206094
206377
102136
64357
156515
35882
6924
191366
58362
83689
41461
42318
75215
198827
73732
112957
29571
175139
42319
165139
240597
62895
208988
198280
142996
186192
202138
75229
239388
185959
51973
198195
211780
154437
153348
186059
218915
93481
142999
163124
283639
283640
35936
102971
223814
67255
186001
184629
183541
183543
183544
257370
206380
6928
200781
69182
251241
166849
6929
186002
143002
191686
152519
206381
163978
272224
49265
186003
241850
105342
223817
190578
77873
175150
143004
186535
170536
18407
84715
124088
156960
128564
177087
242168
205338
145439
129605
226600
160861
241943
253993
226595
207255
25772
206804
211087
175011
75246
164002
219230
14455
84719
162055
129609
229678
128803
223207
157292
6932
283536
162057
240788
266156
266157
228029
96234
179016
184155
73180
175015
162952
282900
73063
92690
176766
63383
266159
253998
259259
229701
143018
229702
229703
143020
25774
73733
7825
202963
175157
240789
64365
52103
93490
188509
196011
67460
252515
69192
143030
189459
186005
206174
84618
127415
175018
73065
206175
206176
239009
286433
286434
40968
206383
229705
185631
186008
268738
268739
268740
268741
268742
268743
268745
173431
254002
202470
164005
211781
170189
219872
175021
175022
175024
188821
247716
163982
93495
218922
229679
267648
227261
196012
165567
229680
229681
149475
149476
155645
166856
223820
206177
254003
254004
254005
229501
73736
73069
241944
241951
185633
186545
254007
166859
96781
229708
229709
6938
247717
258188
93496
273506
206384
198202
252519
251101
179018
179019
237664
173288
266161
75272
175164
258190
92710
229683
229684
229685
175165
175166
175167
175168
175169
206178
206805
229686
229687
229688
229689
166862
175170
248326
149486
283434
252516
283538
283539
217116
226596
206547
265848
198284
198285
264676
210401
210402
264677
264678
264679
264680
209349
206385
194850
129627
144090
163984
283650
186015
240540
240541
257595
257596
6949
6950
162972
240542
196185
240543
264681
264682
264683
264684
264686
264687
240599
202969
202970
229690
229691
227267
227268
143042
93497
93498
93499
277971
143044
143046
143047
210407
229710
229711
128817
128818
170560
170561
277443
277444
277445
248327
248328
248329
248330
175026
312957
305419
305420
240601
208996
208997
208998
143048
143049
143050
283657
283658
240067
62911
175172
196186
185634
185635
185636
166864
166865
166866
283540
234015
283541
267307
264384
264385
277973
283652
283653
283654
267418
312958
312959
167961
167962
175027
290403
290404
198286
198287
275006
163563
163564
163565
277974
286436
167963
167964
167965
167966
202476
202477
202478
228170
228174
185637
175028
294291
279746
84720
6951
240068
240069
279745
276299
63391
63392
242172
219876
205346
282327
206386
271111
210410
143053
129629
96238
155646
301283
258191
257597
301284
246305
314752
128820
229712
229713
229714
316213
186016
175029
175030
228175
310898
310899
279747
279748
279749
290405
290406
283542
316214
316234
316215
232129
188513
188514
188515
270043
205347
163986
163987
162982
223216
223217
223218
223219
267826
267827
295650
289586
295651
295652
289587
289588
185638
163989
163990
179021
179023
229715
162987
293851
75279
218240
206806
293852
6953
283543
295653
163092
219877
218241
162988
175646
258192
286364
191372
191373
191374
229692
186017
283736
240070
275697
275698
248331
163991
279750
223824
164007
258193
277448
93501
228176
228177
228178
163566
316235
253789
251242