6456
1056
6717
21368
21576
17229
32421
13719
6466
12566
49034
2378
12371
16362
7315
48409
26829
49125
55181
16209
76410
6602
49035
7934
52294
45760
98099
43538
6470
27833
60167
25199
36210
46583
70132
110945
51279
42238
12817
125782
79330
24436
52296
111390
50222
27616
6477
132961
86538
16217
42241
141131
141827
30013
141132
107791
27835
146707
43547
110946
25213
2686
141133
102953
79844
12579
80494
80495
13727
7940
49166
21376
6479
19391
67753
34404
8631
91377
28231
23772
180270
52418
72999
36213
119226
19773
23774
9328
21378
39956
23775
81032
141135
43553
79337
21381
180272
103500
18204
186140
188162
29273
80509
11726
76412
76413
76414
6482
82089
32948
198334
73208
80510
64588
209263
178945
36217
210461
210462
27839
36218
21382
211923
27840
36219
26302
18954
79041
208650
182765
21383
21384
140938
103942
180276
180277
39957
187417
187418
13731
134058
32424
16673
180278
208651
218651
139598
176038
216705
50118
107264
140264
15320
39958
219514
99130
219515
81035
135528
220100
180934
114953
36220
86978
132197
132198
154917
76415
121352
36221
46484
18456
65539
56461
32425
139602
111627
101019
94851
109108
15164
36222
127818
57086
252765
252766
21385
198336
56462
99131
36223
27841
59544
185193
59670
21386
76286
56464
220101
464
23116
79342
79848
6485
103501
188163
52305
80515
124645
140266
36225
85174
52423
103785
259449
36226
76416
76417
210471
152614
36227
141136
178946
129448
49994
32427
208456
129449
210472
186141
152615
35396
139605
79343
79344
79345
255052
21387
79346
79347
171562
106101
270770
270771
256820
68912
219516
32428
271313
166131
27675
1716
218942
266283
220103
146710
266284
103502
91221
170239
164008
21864
117813
81043
99132
74837
266285
99475
80516
25472
80518
103786
271314
97042
117814
197073
197074
52424
208457
36228
266287
198339
39969
27844
9800
80712
99133
215222
252768
189778
107265
107266
49037
21389
284118
49038
36229
80525
39971
169652
36230
52425
141828
266289
36231
36232
36233
141137
107267
156167
104383
39972
119251
180937
180938
180939
284119
63848
99134
39973
210473
36234
210464
125783
125784
188164
105798
125785
125786
160318
285039
285040
285041
285042
164009
117819
188165
27845
79850
103787
270772
160204
80529
164010
117820
188166
263966
79851
186142
36235
219947
219948
82096
49039
263967
105799
234525
164011
80532
80533
180288
117822
103505
262075
85599
188167
52315
68229
284767
176051
36236
36237
117823
189782
292328
79853
220070
105800
265813
173090
176052
298485
176053
215803
36238
117824
117825
164469
99135
99136
99137
99138
99139
103788
210474
103510
216220
105801
80535
284804
155061
284805
188440
196288
196289
196290
196291
189784
189785
198343
98112
175726
257339
212077
208459
185017
302222
206441
247701
170240
32429
32430
32431
260877
6491
6492
164013
292330
39977
103789
99140
39981
210476
213840
32432
27848
99141
265683
302223
186143
215804
164014
208463
208267
212078
265816
265817
246338
52426
110949
103511
27849
220071
110950
98114
117829
39986
164015
117830
36239
216222
128489
128490
298486
103790
103791
103792
103793
222726
210478
216223
99142
99143
141138
52427
52429
272648
99144
85601
222729
99145
99146
99147
277735
277736
265818
265819
265820
188168
266136
141139
140071
216707
216708
309577
278123
309578
278124
128491
128492
239584
36240
36241
36242
73220
229270
229271
220072
117832
117833
242694
141140
97051
97052
219952
80543
141141
109112
109113
208794
185019
284500
6494
6495
270899
80544
188169
103794
52430
52431
99148
272423
265821
271544
216709
212079
222730
154928
63543
140072
85603
140073
194231
230190
7279
36243
21398
194234
293604
215225
52432
53257
154929
293605
85604
154931
39992
176055
176056
176057
164016
240186
240187
240188
207552
188170
188171
117840
176058
117841
180293
240189
240190
164460
36244
36245
36246
99150
99151
302380
302381
302382
302383
36247
258957
36248
105805
154932
97004
265825
265828
265829
140074
80547
80548
103795
176059
309579
309580
207553
36249
36250
36251
255737
27851
105806
105807
293607
284501
188173
271430
293608
21401
311422
311423
154933
103513
164017
299437
52433
212080
207554
39993
271431
311424
271432
215226
154936
283878
283879
258959
188174
154937
154938
278128
309501
309502
39996
314577
85605