4287
4896
5532
4288
14290
982
21044
34033
6561
16733
31482
10161
12734
25279
4902
50127
6562
42888
4289
53829
53830
54083
30
53586
14292
2654
10826
2655
871
30485
32600
6469
14293
27128
3142
52868
6470
50128
19954
1231
108883
12737
4905
4468
98710
39314
134169
60852
20815
139464
32601
142831
42889
4470
147648
39315
5031
14295
14953
134193
134194
53831
15138
8527
23940
32507
4967
20134
66775
38691
134195
134196
5586
50131
160152
160153
32602
54084
54085
156838
105679
105680
39317
7878
36261
187917
32603
7722
34231
99905
82802
99906
50539
105681
32605
132969
32606
53832
190419
82804
32607
54086
53833
53590
141094
190420
52870
36263
141095
141096
174416
188724
188725
98197
186342
186343
160154
32609
162277
107744
53835
53866
53836
53867
189813
53837
55342
22480
160156
36266
93585
134198
212144
52872
14954
130906
188726
4291
134199
161301
32610
32611
53838
39320
134200
134201
134202
53868
40728
115817
53839
53840
162278
53841
14296
160158
141097
36269
134203
53869
53842
4292
160160
93586
32612
227147
134176
36272
108886
108887
186466
16511
160161
54087
34035
44998
36274
188727
99907
160162
53843
56915
53873
188728
53845
10203
36275
52874
52875
210326
210327
36277
1624
9023
36278
36279
93589
160164
126584
53876
66289
12413
25283
186467
186468
36280
39581
39582
160166
66291
207810
207811
88192
53846
53879
53881
134178
130908
36285
212145
148715
268381
55345
269844
25284
148716
25285
32613
159798
34038
53847
53882
54089
160167
36287
28934
54090
76880
160168
160169
160170
134180
54091
188729
36288
50134
188734
188735
53885
32614
39583
188732
115057
232619
93600
132970
53850
36289
25286
134204
134205
134206
39584
157559
54092
108889
53851
36290
188730
134207
130909
24070
53886
188731
34039
160175
36294
14297
220230
160176
135171
53852
4912
53887
134211
53853
188738
36295
298465
53888
116963
116964
93606
295352
295353
295354
295355
295356
220231
148188
167747
135172
295357
135173
54093
36296
298466
298467
53889
54094
181255
36297
53855
53890
24096
188740
188741
207812
34040
269846
93610
10226
36298
148189
307020
295358
295359
53891
269847
36301
220703
4913
55347
113176
107327
181257
93613
35712
243976
52877
188752
39587
39588
53894
207813
53895
287671
287672
171785
295360
295361
181258
182940
89506
159799
295362
259359
295363
295364
295365
295366
53899
53901
53902
34042
53858
287675
239657
251234
251235
192896
181259
269849
269850
300570
53859
14298
53903
287677
287678
160186
192897
192898
160187
39590
148728
53864
53865
39591