6865
1689
30375
4357
13810
5918
9109
14496
55167
21604
6323
990
22468
15281
10741
94387
83356
51536
10869
66841
42046
20059
127684
138128
63172
101865
53186
42047
74254
43320
53189
72426
7436
124259
23608
2794
48044
57912
22154
9665
42050
43333
73921
46564
128507
59164
117100
148196
141994
19058
192062
76446
246286
112365
65654
28582
35581
43166
205470
76180
86880
72877
32843
25544
64740
25627
118625
127691
2798
81701
232375
18391
139519
145048
220031
173682
105383
61557
208842
36438
82277
153841
206225
119469
85198
57658
191310
39829
201991
183766
138656
120504
48521
243830
155987
89516
89517
299458
299459
30384
55174
127692
116860
55175
246287
30385
300757
223780
300758
300759
201996
229881
143896
278426
143897
120505
301182
301862
301863
300748
301865
47472
301866
301867
89518
301183
216479
216480
216481
223781
179033
112201
55176
55177
301305
300761
299460
299461
155988
299462
89519
301184
183871
183872
183873
179034
125069
215284
304711
179035
299367
50318
183874
117867
183875
265702
306497
306498
117868
158018
300760
223782
302094
172749
304712
304713
138129
256823
304714
304715
81530
55178
277257
169149
308827
257217
308828
210012
76447
300762
309256
281980
309257
90652
304716
302095
296879
119471
119472
119473
287351
206228
243831
55179
55180
302096
175836
302097
249920
145050
249921
301868
287352
272038
272039
171213
281981
281982
309258
272040
217772
217773
123714
239206
310841
183877
300763
236479
236480
240622
42054
42055
243832
312283
260821
263972
263973
304717
312284
258667
309823
243833
304718
236322
312285
243834
258668
206652
243835
306939
183878
183879
42056
206653
289514
308561
258669
240623
263974
236481
240624
236323
236482
256829
256830
256831
286218
256832
304719
176820
256833
281983
301306
281984
258670
313488
313489
313490
256835
81534
226543
301869
301870
301871
301864
313315
281985
281986
281987
281988
15438
94388
281989
281990
183887
302098
45962
301872
138130
302680
308562
308178
281991
94389
315472
315473
315474
315475
176821
271538
308923
308924
309824
309825
76451
47473
47474
47475
309826
125072
125073
76452
193987
117869
315953
125074
271539
125075
311911
176822
125076