2750
48269
37149
2754
17057
15116
79223
26760
6329
6330
21057
17036
50221
128053
50222
116980
59875
19352
116981
56855
29262
134888
56856
81588
23763
44183
59999
117873
21133
21134
116982
125352
117673
15141
81648
52790
61398
1385
88320
42251
179570
2759
85047
85048
65809
26664
75176
115898
56860
57797
147897
133907
65810
51493
40335
228535
164290
206325
80009
47647
164310
164291
48270
54997
206326
129739
99471
84628
42262
210851
71579
94851
45972
191758
81591
81592
81593
80010
56861
48271
60746
141517
114364
156147
50237
26763
48272
56862
161346
70326
65814
152407
164272
141758
142605
254994
206328
234918
63490
259911
259912
259913
259914
259915
147625
169398
239162
50240
133910
191759
95869
70145
161351
95829
228536
134892
189980
52799
52800
150213
196956
196957
194087
223268
56864
196958
147901
196164
128057
234919
234920
196165
252570
241790
206330
134894
144548
164311
261779
184211
94276
94277
223269
223270
144549
133911
230510
206331
147904
49190
52802
134896
26766
81595
146563
169399
161357
58479
52803
173916
113060
101476
48273
147906
52804
52805
259916
133913
133915
133916
234923
173919
173920
56514
236188
92875
71928
92876
234925
56868
188951
104669
190140
236190
236191
236192
223279
223280
128059
161370
4210
128060
56870
100527
236193
92385
48275
251066
150222
196962
134898
141808
196172
196963
133919
133920
92386
81597
81598
236194
144551
52809
230512
104670
103587
104671
133921
133922
194090
164305
164306
56872
206333
200671
150226
52810
206334
206335
194712
133923
230513
137378
56876
92887
133924
253282
253283
253284
253285
253286
122668
48276
48277
48278
48279
196174
150228
259917
81601
56877
133925
133926
133927
161374
259918
52811
147287
52812
81602
279856
279857
279858
52813
173924
173925
133928
254235
161377
52814
254236
253287
279859
150231
206336
195125
261776
52815
52816
173927
2760
56881
242536
134900
134901
134902
134903
259919
259920
259921
194713
211157
211158
150244
169402
169403
56882
234928
196967
196968
242537
279860
206337
206338
150245
52817
196969
196970
144555
52818
240204
240205
240206
236201
211159
144556
253290
242538
194715