61724
42284
41741
52791
23609
30926
200831
58488
62658
58644
44002
29607
195058
52082
112941
67247
195059
187555
142982
75186
195062
30927
253986
204573
195063
59074
75196
42311
157285
127020
205180
142991
253988
218228
75212
75215
175139
175141
184395
37286
205184
185959
211780
253989
262852
253990
223814
175462
253991
101348
223817
165596
77873
175150
270544
212391
253993
217096
14455
272711
272712
195070
195071
195072
157292
195073
288992
288993
92680
92681
92682
92683
259696
175621
289931
92688
305096
175154
143010
244488
143012
259698
143014
253996
253997
253998
272713
272714
272715
143016
305097
305098
305099
305100
305101
244489
244490
217103
92692
92693
92695
253999
288224
143020
143021
143023
254000
254001
223819
143027
288994
77529
175157
206174
206175
206176
254002
202470
195924
211781
307737
252433
252434
229679
259702
259703
229680
229681
229682
202471
206177
254003
272716
254004
254005
254006
185632
92700
175162
217112
217113
302002
254008
302003
288995
288996
272717
227263
305102
272718
272719
202473
254009
229684
229685
175166
175168
217116
254010
195074
195075
229693
229694
229695
223825
223826
223827
223828
195076
307739
217128
217129
227272
227275
227276
227277
143063
254011
211785
211786
307740
307741
143065
272720
306455
306456
306457
306458
306459
306460
175179
306461
211787