106982
187126
202326
202327
49926
186652
95012
41893
221690
201715
278842
278843
202329
156464
288198
156465
221694
84737
159281
202341
288132
160074
186668
202331
258920
288201
288202
288203
307306
166120
221697
190684
221698
288133
190685
190686
288134
221699
258921
268207
288205
160075
258922
288206
202332
186669
246221
311478
288207
278850
258923
258924
278844
278845
278846
278847
288208
257398
190688
258927
295627
307243
307244
306252
288209
257404
295628
202337
202338
295629
278848
278849
202344
295630
311113
202339
306255
311480
288213
307245