5618
106049
157138
58171
3449
66735
66736
189770
116599
189772
189775
169973
194792
184849
184850
169974
199148
184851
215992
244525
213628
279963
246903
284387
121927
187623
290039
5627
5628
145267
157139
209763
184374
58200
108116
184375
194801
194796
184853
116610
108117
194797
194798
224309
194803
224310
271782
224311
282037
282038
282039
282040
298792
214151
298793
194805
209764
298794
187626
244527
131883
246905
284388
299041
306577
306578
194806
299042
194807
244528
306579
290042
291755
268810