10457
15007
23216
45892
160378
18877
100743
10019
12692
176139
235096
176140
156788
160379
44942
72560
23224
261184
207182
72525
207183
218626
52997
218627
23229
241256
156789
220446
47910
156790
248668
111915
189083
248670
217868
217869
217870
112128
101366
192941
189087
156791
261186
207184
280484
47917
207185
244939
156792
261188
261189
248672
207186
278250
248673
189092
189093
189094
218635
218636
23235
280485
303774
303775
23236
289390
207187