181244
47577
89429
203187
234051
200806
200813
20996
200815
200816
181248
181249
214363
214364
214365
214366
311772
214367
311773
311774
311775
214368
214369
311776
12244
214370
260570
260571
260572
214372
315591
311777
214373
214374
214375
214376
315592
315593
311778
214380
214381
200824
200825
214382