41299
114621
14364
128288
81186
95259
113665
117767
213970
114623
113666
86716
129317
128309
113667
129324
112198
205943
276553
114624
276554
213973
117772
117773
129325
180298
205944
129326
213974
213975
205945
276555
276556
205946
205947
113669
113670
114625
129327
129328
112200