82638
82639
82640
82645
82646
82641
91978
85824
85825
91979
91983
91980
91981
82642
95887
82643
91982
91984
95888
106042
95889
95890
95891
106062
93923
93924
85826
95896
93927
95897
82644
85827
95898
146920